^C:\APEX_UNIFIED_VERSION_HRSTREAM\DXERR8.LIB|C:\APEX_UNIFIED_VERSION_HRSTREAM\RELEASE\ADJDOC.OBJ|C:\APEX_UNIFIED_VERSION_HRSTREAM\RELEASE\ADJVIEW.OBJ|C:\APEX_UNIFIED_VERSION_HRSTREAM\RELEASE\ADPDOC.OBJ|C:\APEX_UNIFIED_VERSION_HRSTREAM\RELEASE\ADPVIEW.OBJ|C:\APEX_UNIFIED_VERSION_HRSTREAM\RELEASE\APEX.OBJ|C:\APEX_UNIFIED_VERSION_HRSTREAM\RELEASE\APEX.RES|C:\APEX_UNIFIED_VERSION_HRSTREAM\RELEASE\APEXDOC.OBJ|C:\APEX_UNIFIED_VERSION_HRSTREAM\RELEASE\APEXPROGRESSCTRL.OBJ|C:\APEX_UNIFIED_VERSION_HRSTREAM\RELEASE\APEXVIEW.OBJ|C:\APEX_UNIFIED_VERSION_HRSTREAM\RELEASE\BEDCSIMPLANT.OBJ|C:\APEX_UNIFIED_VERSION_HRSTREAM\RELEASE\BEDCSSTIMULUS.OBJ|C:\APEX_UNIFIED_VERSION_HRSTREAM\RELEASE\CHANNELMAP.OBJ|C:\APEX_UNIFIED_VERSION_HRSTREAM\RELEASE\CODE.OBJ|C:\APEX_UNIFIED_VERSION_HRSTREAM\RELEASE\CSTDOC.OBJ|C:\APEX_UNIFIED_VERSION_HRSTREAM\RELEASE\CSTVIEW.OBJ|C:\APEX_UNIFIED_VERSION_HRSTREAM\RELEASE\DEVICE.OBJ|C:\APEX_UNIFIED_VERSION_HRSTREAM\RELEASE\DSUTIL.OBJ|C:\APEX_UNIFIED_VERSION_HRSTREAM\RELEASE\ELECSTIMULUS.OBJ|C:\APEX_UNIFIED_VERSION_HRSTREAM\RELEASE\ERROR.OBJ|C:\APEX_UNIFIED_VERSION_HRSTREAM\RELEASE\FLASHCLICK.OBJ|C:\APEX_UNIFIED_VERSION_HRSTREAM\RELEASE\HRSTREAMIMPLANT.OBJ|C:\APEX_UNIFIED_VERSION_HRSTREAM\RELEASE\HRSTREAMSTIMULUS.OBJ|C:\APEX_UNIFIED_VERSION_HRSTREAM\RELEASE\IDNDOC.OBJ|C:\APEX_UNIFIED_VERSION_HRSTREAM\RELEASE\IDNVIEW.OBJ|C:\APEX_UNIFIED_VERSION_HRSTREAM\RELEASE\IMPLANT.OBJ|C:\APEX_UNIFIED_VERSION_HRSTREAM\RELEASE\JSTDOC.OBJ|C:\APEX_UNIFIED_VERSION_HRSTREAM\RELEASE\JSTVIEW.OBJ|C:\APEX_UNIFIED_VERSION_HRSTREAM\RELEASE\MAINFRM.OBJ|C:\APEX_UNIFIED_VERSION_HRSTREAM\RELEASE\MAP.OBJ|C:\APEX_UNIFIED_VERSION_HRSTREAM\RELEASE\MAPDATA.OBJ|C:\APEX_UNIFIED_VERSION_HRSTREAM\RELEASE\MIDDOC.OBJ|C:\APEX_UNIFIED_VERSION_HRSTREAM\RELEASE\MIDVIEW.OBJ|C:\APEX_UNIFIED_VERSION_HRSTREAM\RELEASE\MOVIETHREAD.OBJ|C:\APEX_UNIFIED_VERSION_HRSTREAM\RELEASE\MOVIEWND.OBJ|C:\APEX_UNIFIED_VERSION_HRSTREAM\RELEASE\NIC2DEVICE.OBJ|C:\APEX_UNIFIED_VERSION_HRSTREAM\RELEASE\NIC2STIMULUS.OBJ|C:\APEX_UNIFIED_VERSION_HRSTREAM\RELEASE\OPNDOC.OBJ|C:\APEX_UNIFIED_VERSION_HRSTREAM\RELEASE\OPNVIEW.OBJ|C:\APEX_UNIFIED_VERSION_HRSTREAM\RELEASE\RANDOM.OBJ|C:\APEX_UNIFIED_VERSION_HRSTREAM\RELEASE\REINFORCEMENTWND.OBJ|C:\APEX_UNIFIED_VERSION_HRSTREAM\RELEASE\RESPONSEBUTTON.OBJ|C:\APEX_UNIFIED_VERSION_HRSTREAM\RELEASE\SHOCKWAVEFLASH.OBJ|C:\APEX_UNIFIED_VERSION_HRSTREAM\RELEASE\STDAFX.OBJ|C:\APEX_UNIFIED_VERSION_HRSTREAM\RELEASE\STIMULUS.OBJ|C:\APEX_UNIFIED_VERSION_HRSTREAM\RELEASE\TESTDIALOG.OBJ|C:\APEX_UNIFIED_VERSION_HRSTREAM\RELEASE\TEXTPROGRESSCTRL.OBJ|C:\APEX_UNIFIED_VERSION_HRSTREAM\RELEASE\THREADMOVIEWND.OBJ|C:\APEX_UNIFIED_VERSION_HRSTREAM\RELEASE\WAVDEVICE.OBJ|C:\APEX_UNIFIED_VERSION_HRSTREAM\RELEASE\WAVSTIMULUS.OBJ
C:\NUCLEUS\NIC\C_C++\LIBRARIES\MSVC\V7.1\SERVICES.LIB
C:\NUCLEUS\NIC\C_C++\LIBRARIES\MSVC\V7.1\NIC.LIB
C:\NUCLEUS\NIC\C_C++\LIBRARIES\MSVC\V7.1\DRIVERS.LIB
C:\NUCLEUS\NIC\C_C++\LIBRARIES\MSVC\V7.1\SOCKETS.LIB
C:\APEX_UNIFIED_VERSION_HRSTREAM\RELEASE\APEX.RES
C:\APEX_UNIFIED_VERSION_HRSTREAM\RELEASE\ADJDOC.OBJ
C:\APEX_UNIFIED_VERSION_HRSTREAM\RELEASE\ADJVIEW.OBJ
C:\APEX_UNIFIED_VERSION_HRSTREAM\RELEASE\ADPDOC.OBJ
C:\APEX_UNIFIED_VERSION_HRSTREAM\RELEASE\ADPVIEW.OBJ
C:\APEX_UNIFIED_VERSION_HRSTREAM\RELEASE\APEX.OBJ
C:\APEX_UNIFIED_VERSION_HRSTREAM\RELEASE\APEXDOC.OBJ
C:\APEX_UNIFIED_VERSION_HRSTREAM\RELEASE\APEXPROGRESSCTRL.OBJ
C:\APEX_UNIFIED_VERSION_HRSTREAM\RELEASE\APEXVIEW.OBJ
C:\APEX_UNIFIED_VERSION_HRSTREAM\RELEASE\BEDCSIMPLANT.OBJ
C:\APEX_UNIFIED_VERSION_HRSTREAM\RELEASE\BEDCSSTIMULUS.OBJ
C:\APEX_UNIFIED_VERSION_HRSTREAM\RELEASE\CHANNELMAP.OBJ
C:\APEX_UNIFIED_VERSION_HRSTREAM\RELEASE\CODE.OBJ
C:\APEX_UNIFIED_VERSION_HRSTREAM\RELEASE\CSTDOC.OBJ
C:\APEX_UNIFIED_VERSION_HRSTREAM\RELEASE\CSTVIEW.OBJ
C:\APEX_UNIFIED_VERSION_HRSTREAM\RELEASE\DEVICE.OBJ
C:\APEX_UNIFIED_VERSION_HRSTREAM\RELEASE\DSUTIL.OBJ
C:\APEX_UNIFIED_VERSION_HRSTREAM\RELEASE\ELECSTIMULUS.OBJ
C:\APEX_UNIFIED_VERSION_HRSTREAM\RELEASE\ERROR.OBJ
C:\APEX_UNIFIED_VERSION_HRSTREAM\RELEASE\FLASHCLICK.OBJ
C:\APEX_UNIFIED_VERSION_HRSTREAM\RELEASE\HRSTREAMIMPLANT.OBJ
C:\APEX_UNIFIED_VERSION_HRSTREAM\RELEASE\HRSTREAMSTIMULUS.OBJ
C:\APEX_UNIFIED_VERSION_HRSTREAM\RELEASE\IDNDOC.OBJ
C:\APEX_UNIFIED_VERSION_HRSTREAM\RELEASE\IDNVIEW.OBJ
C:\APEX_UNIFIED_VERSION_HRSTREAM\RELEASE\IMPLANT.OBJ
C:\APEX_UNIFIED_VERSION_HRSTREAM\RELEASE\JSTDOC.OBJ
C:\APEX_UNIFIED_VERSION_HRSTREAM\RELEASE\JSTVIEW.OBJ
C:\APEX_UNIFIED_VERSION_HRSTREAM\RELEASE\MAINFRM.OBJ
C:\APEX_UNIFIED_VERSION_HRSTREAM\RELEASE\MAP.OBJ
C:\APEX_UNIFIED_VERSION_HRSTREAM\RELEASE\MAPDATA.OBJ
C:\APEX_UNIFIED_VERSION_HRSTREAM\RELEASE\MIDDOC.OBJ
C:\APEX_UNIFIED_VERSION_HRSTREAM\RELEASE\MIDVIEW.OBJ
C:\APEX_UNIFIED_VERSION_HRSTREAM\RELEASE\MOVIETHREAD.OBJ
C:\APEX_UNIFIED_VERSION_HRSTREAM\RELEASE\MOVIEWND.OBJ
C:\APEX_UNIFIED_VERSION_HRSTREAM\RELEASE\NIC2DEVICE.OBJ
C:\APEX_UNIFIED_VERSION_HRSTREAM\RELEASE\NIC2STIMULUS.OBJ
C:\APEX_UNIFIED_VERSION_HRSTREAM\RELEASE\OPNDOC.OBJ
C:\APEX_UNIFIED_VERSION_HRSTREAM\RELEASE\OPNVIEW.OBJ
C:\APEX_UNIFIED_VERSION_HRSTREAM\RELEASE\RANDOM.OBJ
C:\APEX_UNIFIED_VERSION_HRSTREAM\RELEASE\REINFORCEMENTWND.OBJ
C:\APEX_UNIFIED_VERSION_HRSTREAM\RELEASE\RESPONSEBUTTON.OBJ
C:\APEX_UNIFIED_VERSION_HRSTREAM\RELEASE\SHOCKWAVEFLASH.OBJ
C:\APEX_UNIFIED_VERSION_HRSTREAM\RELEASE\STDAFX.OBJ
C:\APEX_UNIFIED_VERSION_HRSTREAM\RELEASE\STIMULUS.OBJ
C:\APEX_UNIFIED_VERSION_HRSTREAM\RELEASE\TESTDIALOG.OBJ
C:\APEX_UNIFIED_VERSION_HRSTREAM\RELEASE\TEXTPROGRESSCTRL.OBJ
C:\APEX_UNIFIED_VERSION_HRSTREAM\RELEASE\THREADMOVIEWND.OBJ
C:\APEX_UNIFIED_VERSION_HRSTREAM\RELEASE\WAVDEVICE.OBJ
C:\APEX_UNIFIED_VERSION_HRSTREAM\RELEASE\WAVSTIMULUS.OBJ
C:\APEX_UNIFIED_VERSION_HRSTREAM\DXERR8.LIB
C:\WINDOWS\GLOBALIZATION\SORTING\SORTDEFAULT.NLS
C:\WINDOWS\MICROSOFT.NET\FRAMEWORK\V2.0.50727\MSCORWKS.DLL
C:\WINDOWS\MICROSOFT.NET\FRAMEWORK\V4.0.30319\CLR.DLL
C:\PROGRAM FILES (X86)\MICROSOFT VISUAL STUDIO 10.0\VC\BIN\LINK.EXE.CONFIG
C:\PROGRAM FILES (X86)\MICROSOFT VISUAL STUDIO 10.0\VC\ATLMFC\LIB\MFC100.LIB
C:\PROGRAM FILES (X86)\MICROSOFT VISUAL STUDIO 10.0\VC\ATLMFC\LIB\MFCS100.LIB
C:\PROGRAM FILES (X86)\MICROSOFT VISUAL STUDIO 10.0\VC\LIB\MSVCRT.LIB
C:\PROGRAM FILES (X86)\MICROSOFT SDKS\WINDOWS\V7.0A\LIB\KERNEL32.LIB
C:\PROGRAM FILES (X86)\MICROSOFT SDKS\WINDOWS\V7.0A\LIB\USER32.LIB
C:\PROGRAM FILES (X86)\MICROSOFT SDKS\WINDOWS\V7.0A\LIB\GDI32.LIB
C:\PROGRAM FILES (X86)\MICROSOFT SDKS\WINDOWS\V7.0A\LIB\MSIMG32.LIB
C:\PROGRAM FILES (X86)\MICROSOFT SDKS\WINDOWS\V7.0A\LIB\COMDLG32.LIB
C:\PROGRAM FILES (X86)\MICROSOFT SDKS\WINDOWS\V7.0A\LIB\WINSPOOL.LIB
C:\PROGRAM FILES (X86)\MICROSOFT SDKS\WINDOWS\V7.0A\LIB\ADVAPI32.LIB
C:\PROGRAM FILES (X86)\MICROSOFT SDKS\WINDOWS\V7.0A\LIB\SHELL32.LIB
C:\PROGRAM FILES (X86)\MICROSOFT SDKS\WINDOWS\V7.0A\LIB\COMCTL32.LIB
C:\PROGRAM FILES (X86)\MICROSOFT SDKS\WINDOWS\V7.0A\LIB\SHLWAPI.LIB
C:\PROGRAM FILES (X86)\MICROSOFT SDKS\WINDOWS\V7.0A\LIB\UUID.LIB
C:\PROGRAM FILES (X86)\MICROSOFT VISUAL STUDIO 10.0\VC\ATLMFC\LIB\ATLS.LIB
C:\PROGRAM FILES (X86)\MICROSOFT SDKS\WINDOWS\V7.0A\LIB\OLE32.LIB
C:\PROGRAM FILES (X86)\MICROSOFT SDKS\WINDOWS\V7.0A\LIB\OLEAUT32.LIB
C:\PROGRAM FILES (X86)\MICROSOFT SDKS\WINDOWS\V7.0A\LIB\OLEDLG.LIB
C:\PROGRAM FILES (X86)\MICROSOFT SDKS\WINDOWS\V7.0A\LIB\URLMON.LIB
C:\PROGRAM FILES (X86)\MICROSOFT SDKS\WINDOWS\V7.0A\LIB\WINMM.LIB
C:\PROGRAM FILES (X86)\MICROSOFT VISUAL STUDIO 10.0\VC\LIB\OLDNAMES.LIB
C:\PROGRAM FILES (X86)\MICROSOFT VISUAL STUDIO 10.0\VC\LIB\MSVCMRT.LIB
C:\PROGRAM FILES (X86)\MICROSOFT SDKS\WINDOWS\V7.0A\LIB\MSCOREE.LIB
C:\PROGRAM FILES (X86)\MICROSOFT VISUAL STUDIO 10.0\VC\LIB\MSVCPRT.LIB
C:\PROGRAM FILES (X86)\MICROSOFT SDKS\WINDOWS\V7.0A\LIB\WININET.LIB
C:\PROGRAM FILES (X86)\MICROSOFT SDKS\WINDOWS\V7.0A\LIB\WS2_32.LIB
C:\PROGRAM FILES (X86)\MICROSOFT SDKS\WINDOWS\V7.0A\LIB\MSWSOCK.LIB
C:\WINDOWS\MICROSOFT.NET\FRAMEWORK\V4.0.30319\CVTRES.EXE
C:\WINDOWS\SYSTEM32\TZRES.DLL
C:\WINDOWS\SYSTEM32\RSAENH.DLL
